<?xml version="1.0" encoding="utf-8"?>
<!-- Generator: Adobe Illustrator 19.1.1, SVG Export Plug-In . SVG Version: 6.00 Build 0)  -->
<svg version="1.1" id="Layer_1" xmlns="http://www.w3.org/2000/svg" xmlns:xlink="http://www.w3.org/1999/xlink" x="0px" y="0px"
	 viewBox="0 0 400 400" style="enable-background:new 0 0 400 400;" xml:space="preserve">
<style type="text/css">
	.st0{fill:#603913;}
	.st1{fill:#39B54A;}
	.st2{fill:#006838;}
	.st3{fill:#8DC63F;}
	.st4{fill:#2BB673;}
	.st5{fill:#00A651;}
</style>
<rect x="176.5" y="150.6" class="st0" width="67.5" height="249.1"/>
<g>
	<path class="st1" d="M322.6,87.7c-8.4,18.5-27,33.1-50.5,39.7c0.1,1.3,0.1,2.5,0.1,3.8c0,21.6-11.3,40.7-28.4,52.2
		c10.7,7.7,24.1,12.2,38.5,12.2c35.4,0,64.1-27.2,64.1-60.7C346.4,115.9,337.1,98.9,322.6,87.7z"/>
	<path class="st2" d="M252.6,52.8c0,9.5-3.5,18.3-9.6,25.8c16.6,10.7,27.9,28.5,29.1,48.9c23.5-6.6,42.2-21.3,50.5-39.7
		c3.1-6.9,4.8-14.2,4.8-21.9c0-36.2-37.4-65.5-83.4-65.5c-13.1,0-25.5,2.4-36.5,6.6C233.3,12,252.6,30.6,252.6,52.8z"/>
	<path class="st3" d="M172.8,65.8c0,3.9-0.4,7.8-1.2,11.5c10.1-6,21.9-9.5,34.6-9.5c13.6,0,26.2,4,36.7,10.7
		c6.1-7.4,9.6-16.2,9.6-25.8c0-22.2-19.2-40.7-45.1-45.8c-4.6-0.9-9.4-1.4-14.4-1.4c-17.3,0-32.9,5.9-43.8,15.3
		C163.5,30.4,172.8,47,172.8,65.8z"/>
	<path class="st4" d="M150.5,97.4c5.4-8.2,12.6-15.1,21.1-20.2c0.8-3.7,1.2-7.5,1.2-11.5c0-18.8-9.4-35.4-23.5-45
		c-8.2-5.6-18-8.8-28.6-8.8c-28.8,0-52.1,24.1-52.1,53.8c0,18.9,9.5,35.6,23.8,45.2c10.6-9.8,25.2-15.9,41.2-15.9
		C139.4,95.1,145.1,95.9,150.5,97.4z"/>
	<path class="st5" d="M272.2,131.3c0-1.3-0.1-2.6-0.1-3.8c-1.3-20.4-12.5-38.2-29.1-48.9c-10.5-6.8-23.1-10.7-36.7-10.7
		c-12.7,0-24.6,3.5-34.6,9.5c-8.5,5.1-15.8,12-21.1,20.2c24.3,6.8,42,28.1,42,53.2c0,14.5-5.9,27.7-15.5,37.6
		c8.8,4.2,18.8,6.6,29.3,6.6c13.9,0,26.9-4.2,37.5-11.3C260.9,172,272.2,152.9,272.2,131.3z"/>
	<path class="st1" d="M192.5,150.6c0-25.1-17.7-46.3-42-53.2c-5.4-1.5-11-2.3-16.9-2.3c-16.1,0-30.6,6.1-41.2,15.9
		c-10.9,10.1-17.7,24.1-17.7,39.6c0,30.7,26.4,55.5,58.9,55.5c17.2,0,32.6-6.9,43.4-18C186.6,178.3,192.5,165.1,192.5,150.6z"/>
</g>
</svg>
